<?xml version="1.0" encoding="utf-8" standalone="no"?>
<!DOCTYPE svg PUBLIC "-//W3C//DTD SVG 1.1//EN"
  "http://www.w3.org/Graphics/SVG/1.1/DTD/svg11.dtd">
<!-- Created with matplotlib (http://matplotlib.org/) -->
<svg height="398pt" version="1.1" viewBox="0 0 522 398" width="522pt" xmlns="http://www.w3.org/2000/svg" xmlns:xlink="http://www.w3.org/1999/xlink">
 <defs>
  <style type="text/css">
*{stroke-linecap:butt;stroke-linejoin:round;stroke-miterlimit:100000;}
  </style>
 </defs>
 <g id="figure_1">
  <g id="patch_1">
   <path d="M 0 398.2875 
L 522.82125 398.2875 
L 522.82125 0 
L 0 0 
z
" style="fill:#ffffff;"/>
  </g>
  <g id="axes_1">
   <g id="patch_2">
    <path d="M 50.13375 358.86 
L 496.53375 358.86 
L 496.53375 13.26 
L 50.13375 13.26 
z
" style="fill:#ffffff;"/>
   </g>
   <g id="PathCollection_1">
    <defs>
     <path d="M 0 0.559017 
C 0.148253 0.559017 0.290454 0.500115 0.395285 0.395285 
C 0.500115 0.290454 0.559017 0.148253 0.559017 0 
C 0.559017 -0.148253 0.500115 -0.290454 0.395285 -0.395285 
C 0.290454 -0.500115 0.148253 -0.559017 0 -0.559017 
C -0.148253 -0.559017 -0.290454 -0.500115 -0.395285 -0.395285 
C -0.500115 -0.290454 -0.559017 -0.148253 -0.559017 0 
C -0.559017 0.148253 -0.500115 0.290454 -0.395285 0.395285 
C -0.290454 0.500115 -0.148253 0.559017 0 0.559017 
z
" id="m4446e2a164" style="stroke:#ff0000;"/>
    </defs>
    <g clip-path="url(#pf2f859a3b8)">
     <use style="fill:#ff0000;stroke:#ff0000;" x="51.9859395621" xlink:href="#m4446e2a164" y="317.245613399"/>
     <use style="fill:#ff0000;stroke:#ff0000;" x="54.6861195261" xlink:href="#m4446e2a164" y="289.74"/>
     <use style="fill:#ff0000;stroke:#ff0000;" x="51.4503666767" xlink:href="#m4446e2a164" y="317.245613399"/>
     <use style="fill:#ff0000;stroke:#ff0000;" x="59.5062754949" xlink:href="#m4446e2a164" y="242.033646948"/>
     <use style="fill:#ff0000;stroke:#ff0000;" x="77.2694428614" xlink:href="#m4446e2a164" y="281.864235489"/>
     <use style="fill:#ff0000;stroke:#ff0000;" x="67.6068153869" xlink:href="#m4446e2a164" y="250.465896832"/>
     <use style="fill:#ff0000;stroke:#ff0000;" x="55.7572652969" xlink:href="#m4446e2a164" y="284.266992273"/>
     <use style="fill:#ff0000;stroke:#ff0000;" x="56.2482071086" xlink:href="#m4446e2a164" y="281.864235489"/>
     <use style="fill:#ff0000;stroke:#ff0000;" x="53.6149737552" xlink:href="#m4446e2a164" y="296.438420099"/>
     <use style="fill:#ff0000;stroke:#ff0000;" x="64.3487470006" xlink:href="#m4446e2a164" y="317.245613399"/>
     <use style="fill:#ff0000;stroke:#ff0000;" x="63.8131741152" xlink:href="#m4446e2a164" y="300.446823474"/>
     <use style="fill:#ff0000;stroke:#ff0000;" x="82.5135940312" xlink:href="#m4446e2a164" y="254.824033499"/>
     <use style="fill:#ff0000;stroke:#ff0000;" x="72.9179131674" xlink:href="#m4446e2a164" y="148.858051236"/>
     <use style="fill:#ff0000;stroke:#ff0000;" x="63.2552856929" xlink:href="#m4446e2a164" y="281.864235489"/>
     <use style="fill:#ff0000;stroke:#ff0000;" x="131.183779994" xlink:href="#m4446e2a164" y="214.405758697"/>
     <use style="fill:#ff0000;stroke:#ff0000;" x="53.6149737552" xlink:href="#m4446e2a164" y="296.438420099"/>
     <use style="fill:#ff0000;stroke:#ff0000;" x="56.8284110678" xlink:href="#m4446e2a164" y="305.074185573"/>
     <use style="fill:#ff0000;stroke:#ff0000;" x="52.5215124475" xlink:href="#m4446e2a164" y="317.245613399"/>
     <use style="fill:#ff0000;stroke:#ff0000;" x="100.723072136" xlink:href="#m4446e2a164" y="248.125613399"/>
     <use style="fill:#ff0000;stroke:#ff0000;" x="99.1609845531" xlink:href="#m4446e2a164" y="253.004177254"/>
     <use style="fill:#ff0000;stroke:#ff0000;" x="61.98330009" xlink:href="#m4446e2a164" y="284.266992273"/>
     <use style="fill:#ff0000;stroke:#ff0000;" x="53.0124542591" xlink:href="#m4446e2a164" y="292.902757748"/>
     <use style="fill:#ff0000;stroke:#ff0000;" x="87.2891189262" xlink:href="#m4446e2a164" y="242.652605673"/>
     <use style="fill:#ff0000;stroke:#ff0000;" x="104.49439787" xlink:href="#m4446e2a164" y="232.196983954"/>
     <use style="fill:#ff0000;stroke:#ff0000;" x="90.5918183863" xlink:href="#m4446e2a164" y="284.266992273"/>
     <use style="fill:#ff0000;stroke:#ff0000;" x="90.5918183863" xlink:href="#m4446e2a164" y="300.446823474"/>
     <use style="fill:#ff0000;stroke:#ff0000;" x="87.8916384223" xlink:href="#m4446e2a164" y="270.472551102"/>
     <use style="fill:#ff0000;stroke:#ff0000;" x="80.3713024895" xlink:href="#m4446e2a164" y="325.881378874"/>
     <use style="fill:#ff0000;stroke:#ff0000;" x="122.681560438" xlink:href="#m4446e2a164" y="150.496340361"/>
     <use style="fill:#ff0000;stroke:#ff0000;" x="92.4216924115" xlink:href="#m4446e2a164" y="178.337684951"/>
     <use style="fill:#ff0000;stroke:#ff0000;" x="121.655045741" xlink:href="#m4446e2a164" y="100.108605062"/>
     <use style="fill:#ff0000;stroke:#ff0000;" x="61.3807805939" xlink:href="#m4446e2a164" y="226.577186523"/>
     <use style="fill:#ff0000;stroke:#ff0000;" x="95.8136540192" xlink:href="#m4446e2a164" y="179.688742529"/>
     <use style="fill:#ff0000;stroke:#ff0000;" x="125.404055939" xlink:href="#m4446e2a164" y="212.744235489"/>
     <use style="fill:#ff0000;stroke:#ff0000;" x="132.879760798" xlink:href="#m4446e2a164" y="221.226453648"/>
     <use style="fill:#ff0000;stroke:#ff0000;" x="102.887679214" xlink:href="#m4446e2a164" y="218.309750021"/>
     <use style="fill:#ff0000;stroke:#ff0000;" x="102.954625825" xlink:href="#m4446e2a164" y="262.234386601"/>
     <use style="fill:#ff0000;stroke:#ff0000;" x="96.483120126" xlink:href="#m4446e2a164" y="234.489581222"/>
     <use style="fill:#ff0000;stroke:#ff0000;" x="139.32895096" xlink:href="#m4446e2a164" y="228.465761076"/>
     <use style="fill:#ff0000;stroke:#ff0000;" x="86.3295508398" xlink:href="#m4446e2a164" y="247.384379824"/>
     <use style="fill:#ff0000;stroke:#ff0000;" x="109.403815987" xlink:href="#m4446e2a164" y="248.125613399"/>
     <use style="fill:#ff0000;stroke:#ff0000;" x="95.3227122076" xlink:href="#m4446e2a164" y="236.458708955"/>
     <use style="fill:#ff0000;stroke:#ff0000;" x="92.8010565387" xlink:href="#m4446e2a164" y="264.737371974"/>
     <use style="fill:#ff0000;stroke:#ff0000;" x="109.247607229" xlink:href="#m4446e2a164" y="222.798458596"/>
     <use style="fill:#ff0000;stroke:#ff0000;" x="100.656125525" xlink:href="#m4446e2a164" y="234.969886422"/>
     <use style="fill:#ff0000;stroke:#ff0000;" x="102.285159718" xlink:href="#m4446e2a164" y="251.288371147"/>
     <use style="fill:#ff0000;stroke:#ff0000;" x="163.965303689" xlink:href="#m4446e2a164" y="112.617873256"/>
     <use style="fill:#ff0000;stroke:#ff0000;" x="148.389058938" xlink:href="#m4446e2a164" y="254.824033499"/>
     <use style="fill:#ff0000;stroke:#ff0000;" x="108.288039142" xlink:href="#m4446e2a164" y="189.392521577"/>
     <use style="fill:#ff0000;stroke:#ff0000;" x="141.002616227" xlink:href="#m4446e2a164" y="244.589951048"/>
     <use style="fill:#ff0000;stroke:#ff0000;" x="191.212574235" xlink:href="#m4446e2a164" y="228.858164502"/>
     <use style="fill:#ff0000;stroke:#ff0000;" x="146.358345081" xlink:href="#m4446e2a164" y="220.921695349"/>
     <use style="fill:#ff0000;stroke:#ff0000;" x="124.399856779" xlink:href="#m4446e2a164" y="254.824033499"/>
     <use style="fill:#ff0000;stroke:#ff0000;" x="151.200816587" xlink:href="#m4446e2a164" y="236.971857085"/>
     <use style="fill:#ff0000;stroke:#ff0000;" x="118.999496851" xlink:href="#m4446e2a164" y="250.465896832"/>
     <use style="fill:#ff0000;stroke:#ff0000;" x="137.142028344" xlink:href="#m4446e2a164" y="286.878937602"/>
     <use style="fill:#ff0000;stroke:#ff0000;" x="173.494037942" xlink:href="#m4446e2a164" y="234.969886422"/>
     <use style="fill:#ff0000;stroke:#ff0000;" x="71.8244518596" xlink:href="#m4446e2a164" y="257.779050385"/>
     <use style="fill:#ff0000;stroke:#ff0000;" x="188.958705009" xlink:href="#m4446e2a164" y="242.652605673"/>
     <use style="fill:#ff0000;stroke:#ff0000;" x="188.423132124" xlink:href="#m4446e2a164" y="198.635462287"/>
     <use style="fill:#ff0000;stroke:#ff0000;" x="143.63584958" xlink:href="#m4446e2a164" y="210.519630174"/>
     <use style="fill:#ff0000;stroke:#ff0000;" x="188.08839907" xlink:href="#m4446e2a164" y="220.62"/>
     <use style="fill:#ff0000;stroke:#ff0000;" x="240.619172915" xlink:href="#m4446e2a164" y="235.954185573"/>
     <use style="fill:#ff0000;stroke:#ff0000;" x="230.376341482" xlink:href="#m4446e2a164" y="26.2274725409"/>
     <use style="fill:#ff0000;stroke:#ff0000;" x="153.253845981" xlink:href="#m4446e2a164" y="210.093829636"/>
     <use style="fill:#ff0000;stroke:#ff0000;" x="165.616653419" xlink:href="#m4446e2a164" y="263.459798973"/>
     <use style="fill:#ff0000;stroke:#ff0000;" x="51.0263714757" xlink:href="#m4446e2a164" y="248.885614362"/>
     <use style="fill:#ff0000;stroke:#ff0000;" x="184.160864577" xlink:href="#m4446e2a164" y="233.551428789"/>
     <use style="fill:#ff0000;stroke:#ff0000;" x="216.295237702" xlink:href="#m4446e2a164" y="206.88882215"/>
     <use style="fill:#ff0000;stroke:#ff0000;" x="56.4044158668" xlink:href="#m4446e2a164" y="310.5471933"/>
     <use style="fill:#ff0000;stroke:#ff0000;" x="228.769622825" xlink:href="#m4446e2a164" y="247.384379824"/>
     <use style="fill:#ff0000;stroke:#ff0000;" x="191.212574235" xlink:href="#m4446e2a164" y="231.326823474"/>
     <use style="fill:#ff0000;stroke:#ff0000;" x="247.04604754" xlink:href="#m4446e2a164" y="232.196983954"/>
     <use style="fill:#ff0000;stroke:#ff0000;" x="229.282880174" xlink:href="#m4446e2a164" y="224.457357701"/>
     <use style="fill:#ff0000;stroke:#ff0000;" x="234.080720606" xlink:href="#m4446e2a164" y="205.769993223"/>
     <use style="fill:#ff0000;stroke:#ff0000;" x="234.705555639" xlink:href="#m4446e2a164" y="270.472551102"/>
     <use style="fill:#ff0000;stroke:#ff0000;" x="180.612694211" xlink:href="#m4446e2a164" y="266.071744302"/>
     <use style="fill:#ff0000;stroke:#ff0000;" x="237.227211308" xlink:href="#m4446e2a164" y="194.844322355"/>
     <use style="fill:#ff0000;stroke:#ff0000;" x="180.568063137" xlink:href="#m4446e2a164" y="199.963275359"/>
     <use style="fill:#ff0000;stroke:#ff0000;" x="180.568063137" xlink:href="#m4446e2a164" y="198.925497728"/>
     <use style="fill:#ff0000;stroke:#ff0000;" x="180.501116527" xlink:href="#m4446e2a164" y="243.930178674"/>
     <use style="fill:#ff0000;stroke:#ff0000;" x="239.994337882" xlink:href="#m4446e2a164" y="236.971857085"/>
     <use style="fill:#ff0000;stroke:#ff0000;" x="182.710354679" xlink:href="#m4446e2a164" y="198.925497728"/>
     <use style="fill:#ff0000;stroke:#ff0000;" x="239.994337882" xlink:href="#m4446e2a164" y="228.078421062"/>
     <use style="fill:#ff0000;stroke:#ff0000;" x="184.852646221" xlink:href="#m4446e2a164" y="201.670209459"/>
     <use style="fill:#ff0000;stroke:#ff0000;" x="184.852646221" xlink:href="#m4446e2a164" y="197.92240181"/>
     <use style="fill:#ff0000;stroke:#ff0000;" x="245.774061938" xlink:href="#m4446e2a164" y="192.756309576"/>
     <use style="fill:#ff0000;stroke:#ff0000;" x="247.938669016" xlink:href="#m4446e2a164" y="193.843615203"/>
     <use style="fill:#ff0000;stroke:#ff0000;" x="395.734469856" xlink:href="#m4446e2a164" y="201.830308156"/>
     <use style="fill:#ff0000;stroke:#ff0000;" x="397.876761398" xlink:href="#m4446e2a164" y="190.144364248"/>
     <use style="fill:#ff0000;stroke:#ff0000;" x="259.230330684" xlink:href="#m4446e2a164" y="221.845412372"/>
     <use style="fill:#ff0000;stroke:#ff0000;" x="298.840408668" xlink:href="#m4446e2a164" y="215.906993236"/>
     <use style="fill:#ff0000;stroke:#ff0000;" x="207.257445261" xlink:href="#m4446e2a164" y="272.095564447"/>
     <use style="fill:#ff0000;stroke:#ff0000;" x="306.494637822" xlink:href="#m4446e2a164" y="217.487275706"/>
     <use style="fill:#ff0000;stroke:#ff0000;" x="290.829130924" xlink:href="#m4446e2a164" y="226.577186523"/>
     <use style="fill:#ff0000;stroke:#ff0000;" x="236.758585033" xlink:href="#m4446e2a164" y="259.924136621"/>
     <use style="fill:#ff0000;stroke:#ff0000;" x="258.226131524" xlink:href="#m4446e2a164" y="214.650808504"/>
     <use style="fill:#ff0000;stroke:#ff0000;" x="228.23404994" xlink:href="#m4446e2a164" y="113.400645168"/>
     <use style="fill:#ff0000;stroke:#ff0000;" x="86.9543858728" xlink:href="#m4446e2a164" y="277.568572174"/>
     <use style="fill:#ff0000;stroke:#ff0000;" x="296.251806389" xlink:href="#m4446e2a164" y="216.686736676"/>
     <use style="fill:#ff0000;stroke:#ff0000;" x="281.702076335" xlink:href="#m4446e2a164" y="225.853815747"/>
     <use style="fill:#ff0000;stroke:#ff0000;" x="283.844367876" xlink:href="#m4446e2a164" y="224.118162741"/>
     <use style="fill:#ff0000;stroke:#ff0000;" x="312.318992951" xlink:href="#m4446e2a164" y="254.824033499"/>
     <use style="fill:#ff0000;stroke:#ff0000;" x="204.646527445" xlink:href="#m4446e2a164" y="171.478229215"/>
     <use style="fill:#ff0000;stroke:#ff0000;" x="303.191938362" xlink:href="#m4446e2a164" y="85.4262457953"/>
     <use style="fill:#ff0000;stroke:#ff0000;" x="343.895477654" xlink:href="#m4446e2a164" y="225.853815747"/>
     <use style="fill:#ff0000;stroke:#ff0000;" x="289.244727804" xlink:href="#m4446e2a164" y="243.284596059"/>
     <use style="fill:#ff0000;stroke:#ff0000;" x="313.412454259" xlink:href="#m4446e2a164" y="206.699430767"/>
     <use style="fill:#ff0000;stroke:#ff0000;" x="297.813893971" xlink:href="#m4446e2a164" y="211.169874398"/>
     <use style="fill:#ff0000;stroke:#ff0000;" x="297.813893971" xlink:href="#m4446e2a164" y="211.169874398"/>
     <use style="fill:#ff0000;stroke:#ff0000;" x="366.880480654" xlink:href="#m4446e2a164" y="261.057042188"/>
     <use style="fill:#ff0000;stroke:#ff0000;" x="311.270162717" xlink:href="#m4446e2a164" y="203.31096944"/>
     <use style="fill:#ff0000;stroke:#ff0000;" x="367.505315687" xlink:href="#m4446e2a164" y="225.14746705"/>
     <use style="fill:#ff0000;stroke:#ff0000;" x="311.716473455" xlink:href="#m4446e2a164" y="219.155395648"/>
     <use style="fill:#ff0000;stroke:#ff0000;" x="349.407415267" xlink:href="#m4446e2a164" y="217.218050273"/>
     <use style="fill:#ff0000;stroke:#ff0000;" x="383.483240102" xlink:href="#m4446e2a164" y="180.942958775"/>
     <use style="fill:#ff0000;stroke:#ff0000;" x="391.583779994" xlink:href="#m4446e2a164" y="104.138690225"/>
     <use style="fill:#ff0000;stroke:#ff0000;" x="393.703755999" xlink:href="#m4446e2a164" y="201.510960096"/>
    </g>
   </g>
   <g id="patch_3">
    <path d="M 50.13375 13.26 
L 496.53375 13.26 
" style="fill:none;stroke:#000000;stroke-linecap:square;stroke-linejoin:miter;"/>
   </g>
   <g id="patch_4">
    <path d="M 496.53375 358.86 
L 496.53375 13.26 
" style="fill:none;stroke:#000000;stroke-linecap:square;stroke-linejoin:miter;"/>
   </g>
   <g id="patch_5">
    <path d="M 50.13375 358.86 
L 496.53375 358.86 
" style="fill:none;stroke:#000000;stroke-linecap:square;stroke-linejoin:miter;"/>
   </g>
   <g id="patch_6">
    <path d="M 50.13375 358.86 
L 50.13375 13.26 
" style="fill:none;stroke:#000000;stroke-linecap:square;stroke-linejoin:miter;"/>
   </g>
   <g id="matplotlib.axis_1">
    <g id="xtick_1">
     <g id="line2d_1">
      <defs>
       <path d="M 0 0 
L 0 -4 
" id="m216fb7181a" style="stroke:#000000;stroke-width:0.5;"/>
      </defs>
      <g>
       <use style="stroke:#000000;stroke-width:0.5;" x="50.2230121476" xlink:href="#m216fb7181a" y="358.86"/>
      </g>
     </g>
     <g id="line2d_2">
      <defs>
       <path d="M 0 0 
L 0 4 
" id="m81d2d5e64e" style="stroke:#000000;stroke-width:0.5;"/>
      </defs>
      <g>
       <use style="stroke:#000000;stroke-width:0.5;" x="50.2230121476" xlink:href="#m81d2d5e64e" y="13.26"/>
      </g>
     </g>
     <g id="text_1">
      <!-- 0 -->
      <defs>
       <path d="M 31.78125 66.40625 
Q 24.171875 66.40625 20.328125 58.90625 
Q 16.5 51.421875 16.5 36.375 
Q 16.5 21.390625 20.328125 13.890625 
Q 24.171875 6.390625 31.78125 6.390625 
Q 39.453125 6.390625 43.28125 13.890625 
Q 47.125 21.390625 47.125 36.375 
Q 47.125 51.421875 43.28125 58.90625 
Q 39.453125 66.40625 31.78125 66.40625 
M 31.78125 74.21875 
Q 44.046875 74.21875 50.515625 64.515625 
Q 56.984375 54.828125 56.984375 36.375 
Q 56.984375 17.96875 50.515625 8.265625 
Q 44.046875 -1.421875 31.78125 -1.421875 
Q 19.53125 -1.421875 13.0625 8.265625 
Q 6.59375 17.96875 6.59375 36.375 
Q 6.59375 54.828125 13.0625 64.515625 
Q 19.53125 74.21875 31.78125 74.21875 
" id="BitstreamVeraSans-Roman-30"/>
      </defs>
      <g transform="translate(46.4055121476 371.978125)scale(0.12 -0.12)">
       <use xlink:href="#BitstreamVeraSans-Roman-30"/>
      </g>
     </g>
    </g>
    <g id="xtick_2">
     <g id="line2d_3">
      <g>
       <use style="stroke:#000000;stroke-width:0.5;" x="161.800696611" xlink:href="#m216fb7181a" y="358.86"/>
      </g>
     </g>
     <g id="line2d_4">
      <g>
       <use style="stroke:#000000;stroke-width:0.5;" x="161.800696611" xlink:href="#m81d2d5e64e" y="13.26"/>
      </g>
     </g>
     <g id="text_2">
      <!-- 5000 -->
      <defs>
       <path d="M 10.796875 72.90625 
L 49.515625 72.90625 
L 49.515625 64.59375 
L 19.828125 64.59375 
L 19.828125 46.734375 
Q 21.96875 47.46875 24.109375 47.828125 
Q 26.265625 48.1875 28.421875 48.1875 
Q 40.625 48.1875 47.75 41.5 
Q 54.890625 34.8125 54.890625 23.390625 
Q 54.890625 11.625 47.5625 5.09375 
Q 40.234375 -1.421875 26.90625 -1.421875 
Q 22.3125 -1.421875 17.546875 -0.640625 
Q 12.796875 0.140625 7.71875 1.703125 
L 7.71875 11.625 
Q 12.109375 9.234375 16.796875 8.0625 
Q 21.484375 6.890625 26.703125 6.890625 
Q 35.15625 6.890625 40.078125 11.328125 
Q 45.015625 15.765625 45.015625 23.390625 
Q 45.015625 31 40.078125 35.4375 
Q 35.15625 39.890625 26.703125 39.890625 
Q 22.75 39.890625 18.8125 39.015625 
Q 14.890625 38.140625 10.796875 36.28125 
z
" id="BitstreamVeraSans-Roman-35"/>
      </defs>
      <g transform="translate(146.530696611 371.978125)scale(0.12 -0.12)">
       <use xlink:href="#BitstreamVeraSans-Roman-35"/>
       <use x="63.623046875" xlink:href="#BitstreamVeraSans-Roman-30"/>
       <use x="127.24609375" xlink:href="#BitstreamVeraSans-Roman-30"/>
       <use x="190.869140625" xlink:href="#BitstreamVeraSans-Roman-30"/>
      </g>
     </g>
    </g>
    <g id="xtick_3">
     <g id="line2d_5">
      <g>
       <use style="stroke:#000000;stroke-width:0.5;" x="273.378381074" xlink:href="#m216fb7181a" y="358.86"/>
      </g>
     </g>
     <g id="line2d_6">
      <g>
       <use style="stroke:#000000;stroke-width:0.5;" x="273.378381074" xlink:href="#m81d2d5e64e" y="13.26"/>
      </g>
     </g>
     <g id="text_3">
      <!-- 10000 -->
      <defs>
       <path d="M 12.40625 8.296875 
L 28.515625 8.296875 
L 28.515625 63.921875 
L 10.984375 60.40625 
L 10.984375 69.390625 
L 28.421875 72.90625 
L 38.28125 72.90625 
L 38.28125 8.296875 
L 54.390625 8.296875 
L 54.390625 0 
L 12.40625 0 
z
" id="BitstreamVeraSans-Roman-31"/>
      </defs>
      <g transform="translate(254.290881074 371.978125)scale(0.12 -0.12)">
       <use xlink:href="#BitstreamVeraSans-Roman-31"/>
       <use x="63.623046875" xlink:href="#BitstreamVeraSans-Roman-30"/>
       <use x="127.24609375" xlink:href="#BitstreamVeraSans-Roman-30"/>
       <use x="190.869140625" xlink:href="#BitstreamVeraSans-Roman-30"/>
       <use x="254.4921875" xlink:href="#BitstreamVeraSans-Roman-30"/>
      </g>
     </g>
    </g>
    <g id="xtick_4">
     <g id="line2d_7">
      <g>
       <use style="stroke:#000000;stroke-width:0.5;" x="384.956065537" xlink:href="#m216fb7181a" y="358.86"/>
      </g>
     </g>
     <g id="line2d_8">
      <g>
       <use style="stroke:#000000;stroke-width:0.5;" x="384.956065537" xlink:href="#m81d2d5e64e" y="13.26"/>
      </g>
     </g>
     <g id="text_4">
      <!-- 15000 -->
      <g transform="translate(365.868565537 371.978125)scale(0.12 -0.12)">
       <use xlink:href="#BitstreamVeraSans-Roman-31"/>
       <use x="63.623046875" xlink:href="#BitstreamVeraSans-Roman-35"/>
       <use x="127.24609375" xlink:href="#BitstreamVeraSans-Roman-30"/>
       <use x="190.869140625" xlink:href="#BitstreamVeraSans-Roman-30"/>
       <use x="254.4921875" xlink:href="#BitstreamVeraSans-Roman-30"/>
      </g>
     </g>
    </g>
    <g id="xtick_5">
     <g id="line2d_9">
      <g>
       <use style="stroke:#000000;stroke-width:0.5;" x="496.53375" xlink:href="#m216fb7181a" y="358.86"/>
      </g>
     </g>
     <g id="line2d_10">
      <g>
       <use style="stroke:#000000;stroke-width:0.5;" x="496.53375" xlink:href="#m81d2d5e64e" y="13.26"/>
      </g>
     </g>
     <g id="text_5">
      <!-- 20000 -->
      <defs>
       <path d="M 19.1875 8.296875 
L 53.609375 8.296875 
L 53.609375 0 
L 7.328125 0 
L 7.328125 8.296875 
Q 12.9375 14.109375 22.625 23.890625 
Q 32.328125 33.6875 34.8125 36.53125 
Q 39.546875 41.84375 41.421875 45.53125 
Q 43.3125 49.21875 43.3125 52.78125 
Q 43.3125 58.59375 39.234375 62.25 
Q 35.15625 65.921875 28.609375 65.921875 
Q 23.96875 65.921875 18.8125 64.3125 
Q 13.671875 62.703125 7.8125 59.421875 
L 7.8125 69.390625 
Q 13.765625 71.78125 18.9375 73 
Q 24.125 74.21875 28.421875 74.21875 
Q 39.75 74.21875 46.484375 68.546875 
Q 53.21875 62.890625 53.21875 53.421875 
Q 53.21875 48.921875 51.53125 44.890625 
Q 49.859375 40.875 45.40625 35.40625 
Q 44.1875 33.984375 37.640625 27.21875 
Q 31.109375 20.453125 19.1875 8.296875 
" id="BitstreamVeraSans-Roman-32"/>
      </defs>
      <g transform="translate(477.44625 371.978125)scale(0.12 -0.12)">
       <use xlink:href="#BitstreamVeraSans-Roman-32"/>
       <use x="63.623046875" xlink:href="#BitstreamVeraSans-Roman-30"/>
       <use x="127.24609375" xlink:href="#BitstreamVeraSans-Roman-30"/>
       <use x="190.869140625" xlink:href="#BitstreamVeraSans-Roman-30"/>
       <use x="254.4921875" xlink:href="#BitstreamVeraSans-Roman-30"/>
      </g>
     </g>
    </g>
    <g id="text_6">
     <!-- Power-on Hours -->
     <defs>
      <path id="BitstreamVeraSans-Roman-20"/>
      <path d="M 54.890625 33.015625 
L 54.890625 0 
L 45.90625 0 
L 45.90625 32.71875 
Q 45.90625 40.484375 42.875 44.328125 
Q 39.84375 48.1875 33.796875 48.1875 
Q 26.515625 48.1875 22.3125 43.546875 
Q 18.109375 38.921875 18.109375 30.90625 
L 18.109375 0 
L 9.078125 0 
L 9.078125 54.6875 
L 18.109375 54.6875 
L 18.109375 46.1875 
Q 21.34375 51.125 25.703125 53.5625 
Q 30.078125 56 35.796875 56 
Q 45.21875 56 50.046875 50.171875 
Q 54.890625 44.34375 54.890625 33.015625 
" id="BitstreamVeraSans-Roman-6e"/>
      <path d="M 30.609375 48.390625 
Q 23.390625 48.390625 19.1875 42.75 
Q 14.984375 37.109375 14.984375 27.296875 
Q 14.984375 17.484375 19.15625 11.84375 
Q 23.34375 6.203125 30.609375 6.203125 
Q 37.796875 6.203125 41.984375 11.859375 
Q 46.1875 17.53125 46.1875 27.296875 
Q 46.1875 37.015625 41.984375 42.703125 
Q 37.796875 48.390625 30.609375 48.390625 
M 30.609375 56 
Q 42.328125 56 49.015625 48.375 
Q 55.71875 40.765625 55.71875 27.296875 
Q 55.71875 13.875 49.015625 6.21875 
Q 42.328125 -1.421875 30.609375 -1.421875 
Q 18.84375 -1.421875 12.171875 6.21875 
Q 5.515625 13.875 5.515625 27.296875 
Q 5.515625 40.765625 12.171875 48.375 
Q 18.84375 56 30.609375 56 
" id="BitstreamVeraSans-Roman-6f"/>
      <path d="M 19.671875 64.796875 
L 19.671875 37.40625 
L 32.078125 37.40625 
Q 38.96875 37.40625 42.71875 40.96875 
Q 46.484375 44.53125 46.484375 51.125 
Q 46.484375 57.671875 42.71875 61.234375 
Q 38.96875 64.796875 32.078125 64.796875 
z
M 9.8125 72.90625 
L 32.078125 72.90625 
Q 44.34375 72.90625 50.609375 67.359375 
Q 56.890625 61.8125 56.890625 51.125 
Q 56.890625 40.328125 50.609375 34.8125 
Q 44.34375 29.296875 32.078125 29.296875 
L 19.671875 29.296875 
L 19.671875 0 
L 9.8125 0 
z
" id="BitstreamVeraSans-Roman-50"/>
      <path d="M 4.890625 31.390625 
L 31.203125 31.390625 
L 31.203125 23.390625 
L 4.890625 23.390625 
z
" id="BitstreamVeraSans-Roman-2d"/>
      <path d="M 56.203125 29.59375 
L 56.203125 25.203125 
L 14.890625 25.203125 
Q 15.484375 15.921875 20.484375 11.0625 
Q 25.484375 6.203125 34.421875 6.203125 
Q 39.59375 6.203125 44.453125 7.46875 
Q 49.3125 8.734375 54.109375 11.28125 
L 54.109375 2.78125 
Q 49.265625 0.734375 44.1875 -0.34375 
Q 39.109375 -1.421875 33.890625 -1.421875 
Q 20.796875 -1.421875 13.15625 6.1875 
Q 5.515625 13.8125 5.515625 26.8125 
Q 5.515625 40.234375 12.765625 48.109375 
Q 20.015625 56 32.328125 56 
Q 43.359375 56 49.78125 48.890625 
Q 56.203125 41.796875 56.203125 29.59375 
M 47.21875 32.234375 
Q 47.125 39.59375 43.09375 43.984375 
Q 39.0625 48.390625 32.421875 48.390625 
Q 24.90625 48.390625 20.390625 44.140625 
Q 15.875 39.890625 15.1875 32.171875 
z
" id="BitstreamVeraSans-Roman-65"/>
      <path d="M 4.203125 54.6875 
L 13.1875 54.6875 
L 24.421875 12.015625 
L 35.59375 54.6875 
L 46.1875 54.6875 
L 57.421875 12.015625 
L 68.609375 54.6875 
L 77.59375 54.6875 
L 63.28125 0 
L 52.6875 0 
L 40.921875 44.828125 
L 29.109375 0 
L 18.5 0 
z
" id="BitstreamVeraSans-Roman-77"/>
      <path d="M 8.5 21.578125 
L 8.5 54.6875 
L 17.484375 54.6875 
L 17.484375 21.921875 
Q 17.484375 14.15625 20.5 10.265625 
Q 23.53125 6.390625 29.59375 6.390625 
Q 36.859375 6.390625 41.078125 11.03125 
Q 45.3125 15.671875 45.3125 23.6875 
L 45.3125 54.6875 
L 54.296875 54.6875 
L 54.296875 0 
L 45.3125 0 
L 45.3125 8.40625 
Q 42.046875 3.421875 37.71875 1 
Q 33.40625 -1.421875 27.6875 -1.421875 
Q 18.265625 -1.421875 13.375 4.4375 
Q 8.5 10.296875 8.5 21.578125 
" id="BitstreamVeraSans-Roman-75"/>
      <path d="M 41.109375 46.296875 
Q 39.59375 47.171875 37.8125 47.578125 
Q 36.03125 48 33.890625 48 
Q 26.265625 48 22.1875 43.046875 
Q 18.109375 38.09375 18.109375 28.8125 
L 18.109375 0 
L 9.078125 0 
L 9.078125 54.6875 
L 18.109375 54.6875 
L 18.109375 46.1875 
Q 20.953125 51.171875 25.484375 53.578125 
Q 30.03125 56 36.53125 56 
Q 37.453125 56 38.578125 55.875 
Q 39.703125 55.765625 41.0625 55.515625 
z
" id="BitstreamVeraSans-Roman-72"/>
      <path d="M 44.28125 53.078125 
L 44.28125 44.578125 
Q 40.484375 46.53125 36.375 47.5 
Q 32.28125 48.484375 27.875 48.484375 
Q 21.1875 48.484375 17.84375 46.4375 
Q 14.5 44.390625 14.5 40.28125 
Q 14.5 37.15625 16.890625 35.375 
Q 19.28125 33.59375 26.515625 31.984375 
L 29.59375 31.296875 
Q 39.15625 29.25 43.1875 25.515625 
Q 47.21875 21.78125 47.21875 15.09375 
Q 47.21875 7.46875 41.1875 3.015625 
Q 35.15625 -1.421875 24.609375 -1.421875 
Q 20.21875 -1.421875 15.453125 -0.5625 
Q 10.6875 0.296875 5.421875 2 
L 5.421875 11.28125 
Q 10.40625 8.6875 15.234375 7.390625 
Q 20.0625 6.109375 24.8125 6.109375 
Q 31.15625 6.109375 34.5625 8.28125 
Q 37.984375 10.453125 37.984375 14.40625 
Q 37.984375 18.0625 35.515625 20.015625 
Q 33.0625 21.96875 24.703125 23.78125 
L 21.578125 24.515625 
Q 13.234375 26.265625 9.515625 29.90625 
Q 5.8125 33.546875 5.8125 39.890625 
Q 5.8125 47.609375 11.28125 51.796875 
Q 16.75 56 26.8125 56 
Q 31.78125 56 36.171875 55.265625 
Q 40.578125 54.546875 44.28125 53.078125 
" id="BitstreamVeraSans-Roman-73"/>
      <path d="M 9.8125 72.90625 
L 19.671875 72.90625 
L 19.671875 43.015625 
L 55.515625 43.015625 
L 55.515625 72.90625 
L 65.375 72.90625 
L 65.375 0 
L 55.515625 0 
L 55.515625 34.71875 
L 19.671875 34.71875 
L 19.671875 0 
L 9.8125 0 
z
" id="BitstreamVeraSans-Roman-48"/>
     </defs>
     <g transform="translate(225.8634375 388.591875)scale(0.12 -0.12)">
      <use xlink:href="#BitstreamVeraSans-Roman-50"/>
      <use x="60.255859375" xlink:href="#BitstreamVeraSans-Roman-6f"/>
      <use x="121.4375" xlink:href="#BitstreamVeraSans-Roman-77"/>
      <use x="203.224609375" xlink:href="#BitstreamVeraSans-Roman-65"/>
      <use x="264.748046875" xlink:href="#BitstreamVeraSans-Roman-72"/>
      <use x="305.767578125" xlink:href="#BitstreamVeraSans-Roman-2d"/>
      <use x="341.8671875" xlink:href="#BitstreamVeraSans-Roman-6f"/>
      <use x="403.048828125" xlink:href="#BitstreamVeraSans-Roman-6e"/>
      <use x="466.427734375" xlink:href="#BitstreamVeraSans-Roman-20"/>
      <use x="498.21484375" xlink:href="#BitstreamVeraSans-Roman-48"/>
      <use x="573.41015625" xlink:href="#BitstreamVeraSans-Roman-6f"/>
      <use x="634.591796875" xlink:href="#BitstreamVeraSans-Roman-75"/>
      <use x="697.970703125" xlink:href="#BitstreamVeraSans-Roman-72"/>
      <use x="739.083984375" xlink:href="#BitstreamVeraSans-Roman-73"/>
     </g>
    </g>
   </g>
   <g id="matplotlib.axis_2">
    <g id="ytick_1">
     <g id="line2d_11">
      <defs>
       <path d="M 0 0 
L 4 0 
" id="m91f71a2657" style="stroke:#000000;stroke-width:0.5;"/>
      </defs>
      <g>
       <use style="stroke:#000000;stroke-width:0.5;" x="50.13375" xlink:href="#m91f71a2657" y="358.86"/>
      </g>
     </g>
     <g id="line2d_12">
      <defs>
       <path d="M 0 0 
L -4 0 
" id="m0325ddd50e" style="stroke:#000000;stroke-width:0.5;"/>
      </defs>
      <g>
       <use style="stroke:#000000;stroke-width:0.5;" x="496.53375" xlink:href="#m0325ddd50e" y="358.86"/>
      </g>
     </g>
     <g id="text_7">
      <!-- $\mathdefault{10^{0}}$ -->
      <g style="fill:#ff0000;" transform="translate(23.81375 362.484375)scale(0.12 -0.12)">
       <use transform="translate(0.0 0.796875)" xlink:href="#BitstreamVeraSans-Roman-31"/>
       <use transform="translate(63.623046875 0.796875)" xlink:href="#BitstreamVeraSans-Roman-30"/>
       <use transform="translate(132.75859375 48.046875)scale(0.7)" xlink:href="#BitstreamVeraSans-Roman-30"/>
      </g>
     </g>
    </g>
    <g id="ytick_2">
     <g id="line2d_13">
      <g>
       <use style="stroke:#000000;stroke-width:0.5;" x="50.13375" xlink:href="#m91f71a2657" y="289.74"/>
      </g>
     </g>
     <g id="line2d_14">
      <g>
       <use style="stroke:#000000;stroke-width:0.5;" x="496.53375" xlink:href="#m0325ddd50e" y="289.74"/>
      </g>
     </g>
     <g id="text_8">
      <!-- $\mathdefault{10^{1}}$ -->
      <g style="fill:#ff0000;" transform="translate(23.81375 293.304375)scale(0.12 -0.12)">
       <use transform="translate(0.0 0.715625)" xlink:href="#BitstreamVeraSans-Roman-31"/>
       <use transform="translate(63.623046875 0.715625)" xlink:href="#BitstreamVeraSans-Roman-30"/>
       <use transform="translate(132.75859375 47.965625)scale(0.7)" xlink:href="#BitstreamVeraSans-Roman-31"/>
      </g>
     </g>
    </g>
    <g id="ytick_3">
     <g id="line2d_15">
      <g>
       <use style="stroke:#000000;stroke-width:0.5;" x="50.13375" xlink:href="#m91f71a2657" y="220.62"/>
      </g>
     </g>
     <g id="line2d_16">
      <g>
       <use style="stroke:#000000;stroke-width:0.5;" x="496.53375" xlink:href="#m0325ddd50e" y="220.62"/>
      </g>
     </g>
     <g id="text_9">
      <!-- $\mathdefault{10^{2}}$ -->
      <g style="fill:#ff0000;" transform="translate(23.81375 224.244375)scale(0.12 -0.12)">
       <use transform="translate(0.0 0.796875)" xlink:href="#BitstreamVeraSans-Roman-31"/>
       <use transform="translate(63.623046875 0.796875)" xlink:href="#BitstreamVeraSans-Roman-30"/>
       <use transform="translate(132.75859375 48.046875)scale(0.7)" xlink:href="#BitstreamVeraSans-Roman-32"/>
      </g>
     </g>
    </g>
    <g id="ytick_4">
     <g id="line2d_17">
      <g>
       <use style="stroke:#000000;stroke-width:0.5;" x="50.13375" xlink:href="#m91f71a2657" y="151.5"/>
      </g>
     </g>
     <g id="line2d_18">
      <g>
       <use style="stroke:#000000;stroke-width:0.5;" x="496.53375" xlink:href="#m0325ddd50e" y="151.5"/>
      </g>
     </g>
     <g id="text_10">
      <!-- $\mathdefault{10^{3}}$ -->
      <defs>
       <path d="M 40.578125 39.3125 
Q 47.65625 37.796875 51.625 33 
Q 55.609375 28.21875 55.609375 21.1875 
Q 55.609375 10.40625 48.1875 4.484375 
Q 40.765625 -1.421875 27.09375 -1.421875 
Q 22.515625 -1.421875 17.65625 -0.515625 
Q 12.796875 0.390625 7.625 2.203125 
L 7.625 11.71875 
Q 11.71875 9.328125 16.59375 8.109375 
Q 21.484375 6.890625 26.8125 6.890625 
Q 36.078125 6.890625 40.9375 10.546875 
Q 45.796875 14.203125 45.796875 21.1875 
Q 45.796875 27.640625 41.28125 31.265625 
Q 36.765625 34.90625 28.71875 34.90625 
L 20.21875 34.90625 
L 20.21875 43.015625 
L 29.109375 43.015625 
Q 36.375 43.015625 40.234375 45.921875 
Q 44.09375 48.828125 44.09375 54.296875 
Q 44.09375 59.90625 40.109375 62.90625 
Q 36.140625 65.921875 28.71875 65.921875 
Q 24.65625 65.921875 20.015625 65.03125 
Q 15.375 64.15625 9.8125 62.3125 
L 9.8125 71.09375 
Q 15.4375 72.65625 20.34375 73.4375 
Q 25.25 74.21875 29.59375 74.21875 
Q 40.828125 74.21875 47.359375 69.109375 
Q 53.90625 64.015625 53.90625 55.328125 
Q 53.90625 49.265625 50.4375 45.09375 
Q 46.96875 40.921875 40.578125 39.3125 
" id="BitstreamVeraSans-Roman-33"/>
      </defs>
      <g style="fill:#ff0000;" transform="translate(23.81375 155.124375)scale(0.12 -0.12)">
       <use transform="translate(0.0 0.796875)" xlink:href="#BitstreamVeraSans-Roman-31"/>
       <use transform="translate(63.623046875 0.796875)" xlink:href="#BitstreamVeraSans-Roman-30"/>
       <use transform="translate(132.75859375 48.046875)scale(0.7)" xlink:href="#BitstreamVeraSans-Roman-33"/>
      </g>
     </g>
    </g>
    <g id="ytick_5">
     <g id="line2d_19">
      <g>
       <use style="stroke:#000000;stroke-width:0.5;" x="50.13375" xlink:href="#m91f71a2657" y="82.38"/>
      </g>
     </g>
     <g id="line2d_20">
      <g>
       <use style="stroke:#000000;stroke-width:0.5;" x="496.53375" xlink:href="#m0325ddd50e" y="82.38"/>
      </g>
     </g>
     <g id="text_11">
      <!-- $\mathdefault{10^{4}}$ -->
      <defs>
       <path d="M 37.796875 64.3125 
L 12.890625 25.390625 
L 37.796875 25.390625 
z
M 35.203125 72.90625 
L 47.609375 72.90625 
L 47.609375 25.390625 
L 58.015625 25.390625 
L 58.015625 17.1875 
L 47.609375 17.1875 
L 47.609375 0 
L 37.796875 0 
L 37.796875 17.1875 
L 4.890625 17.1875 
L 4.890625 26.703125 
z
" id="BitstreamVeraSans-Roman-34"/>
      </defs>
      <g style="fill:#ff0000;" transform="translate(23.81375 85.944375)scale(0.12 -0.12)">
       <use transform="translate(0.0 0.715625)" xlink:href="#BitstreamVeraSans-Roman-31"/>
       <use transform="translate(63.623046875 0.715625)" xlink:href="#BitstreamVeraSans-Roman-30"/>
       <use transform="translate(132.75859375 47.965625)scale(0.7)" xlink:href="#BitstreamVeraSans-Roman-34"/>
      </g>
     </g>
    </g>
    <g id="ytick_6">
     <g id="line2d_21">
      <g>
       <use style="stroke:#000000;stroke-width:0.5;" x="50.13375" xlink:href="#m91f71a2657" y="13.26"/>
      </g>
     </g>
     <g id="line2d_22">
      <g>
       <use style="stroke:#000000;stroke-width:0.5;" x="496.53375" xlink:href="#m0325ddd50e" y="13.26"/>
      </g>
     </g>
     <g id="text_12">
      <!-- $\mathdefault{10^{5}}$ -->
      <g style="fill:#ff0000;" transform="translate(23.81375 16.824375)scale(0.12 -0.12)">
       <use transform="translate(0.0 0.715625)" xlink:href="#BitstreamVeraSans-Roman-31"/>
       <use transform="translate(63.623046875 0.715625)" xlink:href="#BitstreamVeraSans-Roman-30"/>
       <use transform="translate(132.75859375 47.965625)scale(0.7)" xlink:href="#BitstreamVeraSans-Roman-35"/>
      </g>
     </g>
    </g>
    <g id="ytick_7">
     <g id="line2d_23">
      <defs>
       <path d="M 0 0 
L 2 0 
" id="md527218de4" style="stroke:#000000;stroke-width:0.5;"/>
      </defs>
      <g>
       <use style="stroke:#000000;stroke-width:0.5;" x="50.13375" xlink:href="#md527218de4" y="338.0528067"/>
      </g>
     </g>
     <g id="line2d_24">
      <defs>
       <path d="M 0 0 
L -2 0 
" id="m9764b6f2d9" style="stroke:#000000;stroke-width:0.5;"/>
      </defs>
      <g>
       <use style="stroke:#000000;stroke-width:0.5;" x="496.53375" xlink:href="#m9764b6f2d9" y="338.0528067"/>
      </g>
     </g>
    </g>
    <g id="ytick_8">
     <g id="line2d_25">
      <g>
       <use style="stroke:#000000;stroke-width:0.5;" x="50.13375" xlink:href="#md527218de4" y="325.881378874"/>
      </g>
     </g>
     <g id="line2d_26">
      <g>
       <use style="stroke:#000000;stroke-width:0.5;" x="496.53375" xlink:href="#m9764b6f2d9" y="325.881378874"/>
      </g>
     </g>
    </g>
    <g id="ytick_9">
     <g id="line2d_27">
      <g>
       <use style="stroke:#000000;stroke-width:0.5;" x="50.13375" xlink:href="#md527218de4" y="317.245613399"/>
      </g>
     </g>
     <g id="line2d_28">
      <g>
       <use style="stroke:#000000;stroke-width:0.5;" x="496.53375" xlink:href="#m9764b6f2d9" y="317.245613399"/>
      </g>
     </g>
    </g>
    <g id="ytick_10">
     <g id="line2d_29">
      <g>
       <use style="stroke:#000000;stroke-width:0.5;" x="50.13375" xlink:href="#md527218de4" y="310.5471933"/>
      </g>
     </g>
     <g id="line2d_30">
      <g>
       <use style="stroke:#000000;stroke-width:0.5;" x="496.53375" xlink:href="#m9764b6f2d9" y="310.5471933"/>
      </g>
     </g>
    </g>
    <g id="ytick_11">
     <g id="line2d_31">
      <g>
       <use style="stroke:#000000;stroke-width:0.5;" x="50.13375" xlink:href="#md527218de4" y="305.074185573"/>
      </g>
     </g>
     <g id="line2d_32">
      <g>
       <use style="stroke:#000000;stroke-width:0.5;" x="496.53375" xlink:href="#m9764b6f2d9" y="305.074185573"/>
      </g>
     </g>
    </g>
    <g id="ytick_12">
     <g id="line2d_33">
      <g>
       <use style="stroke:#000000;stroke-width:0.5;" x="50.13375" xlink:href="#md527218de4" y="300.446823474"/>
      </g>
     </g>
     <g id="line2d_34">
      <g>
       <use style="stroke:#000000;stroke-width:0.5;" x="496.53375" xlink:href="#m9764b6f2d9" y="300.446823474"/>
      </g>
     </g>
    </g>
    <g id="ytick_13">
     <g id="line2d_35">
      <g>
       <use style="stroke:#000000;stroke-width:0.5;" x="50.13375" xlink:href="#md527218de4" y="296.438420099"/>
      </g>
     </g>
     <g id="line2d_36">
      <g>
       <use style="stroke:#000000;stroke-width:0.5;" x="496.53375" xlink:href="#m9764b6f2d9" y="296.438420099"/>
      </g>
     </g>
    </g>
    <g id="ytick_14">
     <g id="line2d_37">
      <g>
       <use style="stroke:#000000;stroke-width:0.5;" x="50.13375" xlink:href="#md527218de4" y="292.902757748"/>
      </g>
     </g>
     <g id="line2d_38">
      <g>
       <use style="stroke:#000000;stroke-width:0.5;" x="496.53375" xlink:href="#m9764b6f2d9" y="292.902757748"/>
      </g>
     </g>
    </g>
    <g id="ytick_15">
     <g id="line2d_39">
      <g>
       <use style="stroke:#000000;stroke-width:0.5;" x="50.13375" xlink:href="#md527218de4" y="268.9328067"/>
      </g>
     </g>
     <g id="line2d_40">
      <g>
       <use style="stroke:#000000;stroke-width:0.5;" x="496.53375" xlink:href="#m9764b6f2d9" y="268.9328067"/>
      </g>
     </g>
    </g>
    <g id="ytick_16">
     <g id="line2d_41">
      <g>
       <use style="stroke:#000000;stroke-width:0.5;" x="50.13375" xlink:href="#md527218de4" y="256.761378874"/>
      </g>
     </g>
     <g id="line2d_42">
      <g>
       <use style="stroke:#000000;stroke-width:0.5;" x="496.53375" xlink:href="#m9764b6f2d9" y="256.761378874"/>
      </g>
     </g>
    </g>
    <g id="ytick_17">
     <g id="line2d_43">
      <g>
       <use style="stroke:#000000;stroke-width:0.5;" x="50.13375" xlink:href="#md527218de4" y="248.125613399"/>
      </g>
     </g>
     <g id="line2d_44">
      <g>
       <use style="stroke:#000000;stroke-width:0.5;" x="496.53375" xlink:href="#m9764b6f2d9" y="248.125613399"/>
      </g>
     </g>
    </g>
    <g id="ytick_18">
     <g id="line2d_45">
      <g>
       <use style="stroke:#000000;stroke-width:0.5;" x="50.13375" xlink:href="#md527218de4" y="241.4271933"/>
      </g>
     </g>
     <g id="line2d_46">
      <g>
       <use style="stroke:#000000;stroke-width:0.5;" x="496.53375" xlink:href="#m9764b6f2d9" y="241.4271933"/>
      </g>
     </g>
    </g>
    <g id="ytick_19">
     <g id="line2d_47">
      <g>
       <use style="stroke:#000000;stroke-width:0.5;" x="50.13375" xlink:href="#md527218de4" y="235.954185573"/>
      </g>
     </g>
     <g id="line2d_48">
      <g>
       <use style="stroke:#000000;stroke-width:0.5;" x="496.53375" xlink:href="#m9764b6f2d9" y="235.954185573"/>
      </g>
     </g>
    </g>
    <g id="ytick_20">
     <g id="line2d_49">
      <g>
       <use style="stroke:#000000;stroke-width:0.5;" x="50.13375" xlink:href="#md527218de4" y="231.326823474"/>
      </g>
     </g>
     <g id="line2d_50">
      <g>
       <use style="stroke:#000000;stroke-width:0.5;" x="496.53375" xlink:href="#m9764b6f2d9" y="231.326823474"/>
      </g>
     </g>
    </g>
    <g id="ytick_21">
     <g id="line2d_51">
      <g>
       <use style="stroke:#000000;stroke-width:0.5;" x="50.13375" xlink:href="#md527218de4" y="227.318420099"/>
      </g>
     </g>
     <g id="line2d_52">
      <g>
       <use style="stroke:#000000;stroke-width:0.5;" x="496.53375" xlink:href="#m9764b6f2d9" y="227.318420099"/>
      </g>
     </g>
    </g>
    <g id="ytick_22">
     <g id="line2d_53">
      <g>
       <use style="stroke:#000000;stroke-width:0.5;" x="50.13375" xlink:href="#md527218de4" y="223.782757748"/>
      </g>
     </g>
     <g id="line2d_54">
      <g>
       <use style="stroke:#000000;stroke-width:0.5;" x="496.53375" xlink:href="#m9764b6f2d9" y="223.782757748"/>
      </g>
     </g>
    </g>
    <g id="ytick_23">
     <g id="line2d_55">
      <g>
       <use style="stroke:#000000;stroke-width:0.5;" x="50.13375" xlink:href="#md527218de4" y="199.8128067"/>
      </g>
     </g>
     <g id="line2d_56">
      <g>
       <use style="stroke:#000000;stroke-width:0.5;" x="496.53375" xlink:href="#m9764b6f2d9" y="199.8128067"/>
      </g>
     </g>
    </g>
    <g id="ytick_24">
     <g id="line2d_57">
      <g>
       <use style="stroke:#000000;stroke-width:0.5;" x="50.13375" xlink:href="#md527218de4" y="187.641378874"/>
      </g>
     </g>
     <g id="line2d_58">
      <g>
       <use style="stroke:#000000;stroke-width:0.5;" x="496.53375" xlink:href="#m9764b6f2d9" y="187.641378874"/>
      </g>
     </g>
    </g>
    <g id="ytick_25">
     <g id="line2d_59">
      <g>
       <use style="stroke:#000000;stroke-width:0.5;" x="50.13375" xlink:href="#md527218de4" y="179.005613399"/>
      </g>
     </g>
     <g id="line2d_60">
      <g>
       <use style="stroke:#000000;stroke-width:0.5;" x="496.53375" xlink:href="#m9764b6f2d9" y="179.005613399"/>
      </g>
     </g>
    </g>
    <g id="ytick_26">
     <g id="line2d_61">
      <g>
       <use style="stroke:#000000;stroke-width:0.5;" x="50.13375" xlink:href="#md527218de4" y="172.3071933"/>
      </g>
     </g>
     <g id="line2d_62">
      <g>
       <use style="stroke:#000000;stroke-width:0.5;" x="496.53375" xlink:href="#m9764b6f2d9" y="172.3071933"/>
      </g>
     </g>
    </g>
    <g id="ytick_27">
     <g id="line2d_63">
      <g>
       <use style="stroke:#000000;stroke-width:0.5;" x="50.13375" xlink:href="#md527218de4" y="166.834185573"/>
      </g>
     </g>
     <g id="line2d_64">
      <g>
       <use style="stroke:#000000;stroke-width:0.5;" x="496.53375" xlink:href="#m9764b6f2d9" y="166.834185573"/>
      </g>
     </g>
    </g>
    <g id="ytick_28">
     <g id="line2d_65">
      <g>
       <use style="stroke:#000000;stroke-width:0.5;" x="50.13375" xlink:href="#md527218de4" y="162.206823474"/>
      </g>
     </g>
     <g id="line2d_66">
      <g>
       <use style="stroke:#000000;stroke-width:0.5;" x="496.53375" xlink:href="#m9764b6f2d9" y="162.206823474"/>
      </g>
     </g>
    </g>
    <g id="ytick_29">
     <g id="line2d_67">
      <g>
       <use style="stroke:#000000;stroke-width:0.5;" x="50.13375" xlink:href="#md527218de4" y="158.198420099"/>
      </g>
     </g>
     <g id="line2d_68">
      <g>
       <use style="stroke:#000000;stroke-width:0.5;" x="496.53375" xlink:href="#m9764b6f2d9" y="158.198420099"/>
      </g>
     </g>
    </g>
    <g id="ytick_30">
     <g id="line2d_69">
      <g>
       <use style="stroke:#000000;stroke-width:0.5;" x="50.13375" xlink:href="#md527218de4" y="154.662757748"/>
      </g>
     </g>
     <g id="line2d_70">
      <g>
       <use style="stroke:#000000;stroke-width:0.5;" x="496.53375" xlink:href="#m9764b6f2d9" y="154.662757748"/>
      </g>
     </g>
    </g>
    <g id="ytick_31">
     <g id="line2d_71">
      <g>
       <use style="stroke:#000000;stroke-width:0.5;" x="50.13375" xlink:href="#md527218de4" y="130.6928067"/>
      </g>
     </g>
     <g id="line2d_72">
      <g>
       <use style="stroke:#000000;stroke-width:0.5;" x="496.53375" xlink:href="#m9764b6f2d9" y="130.6928067"/>
      </g>
     </g>
    </g>
    <g id="ytick_32">
     <g id="line2d_73">
      <g>
       <use style="stroke:#000000;stroke-width:0.5;" x="50.13375" xlink:href="#md527218de4" y="118.521378874"/>
      </g>
     </g>
     <g id="line2d_74">
      <g>
       <use style="stroke:#000000;stroke-width:0.5;" x="496.53375" xlink:href="#m9764b6f2d9" y="118.521378874"/>
      </g>
     </g>
    </g>
    <g id="ytick_33">
     <g id="line2d_75">
      <g>
       <use style="stroke:#000000;stroke-width:0.5;" x="50.13375" xlink:href="#md527218de4" y="109.885613399"/>
      </g>
     </g>
     <g id="line2d_76">
      <g>
       <use style="stroke:#000000;stroke-width:0.5;" x="496.53375" xlink:href="#m9764b6f2d9" y="109.885613399"/>
      </g>
     </g>
    </g>
    <g id="ytick_34">
     <g id="line2d_77">
      <g>
       <use style="stroke:#000000;stroke-width:0.5;" x="50.13375" xlink:href="#md527218de4" y="103.1871933"/>
      </g>
     </g>
     <g id="line2d_78">
      <g>
       <use style="stroke:#000000;stroke-width:0.5;" x="496.53375" xlink:href="#m9764b6f2d9" y="103.1871933"/>
      </g>
     </g>
    </g>
    <g id="ytick_35">
     <g id="line2d_79">
      <g>
       <use style="stroke:#000000;stroke-width:0.5;" x="50.13375" xlink:href="#md527218de4" y="97.7141855735"/>
      </g>
     </g>
     <g id="line2d_80">
      <g>
       <use style="stroke:#000000;stroke-width:0.5;" x="496.53375" xlink:href="#m9764b6f2d9" y="97.7141855735"/>
      </g>
     </g>
    </g>
    <g id="ytick_36">
     <g id="line2d_81">
      <g>
       <use style="stroke:#000000;stroke-width:0.5;" x="50.13375" xlink:href="#md527218de4" y="93.0868234742"/>
      </g>
     </g>
     <g id="line2d_82">
      <g>
       <use style="stroke:#000000;stroke-width:0.5;" x="496.53375" xlink:href="#m9764b6f2d9" y="93.0868234742"/>
      </g>
     </g>
    </g>
    <g id="ytick_37">
     <g id="line2d_83">
      <g>
       <use style="stroke:#000000;stroke-width:0.5;" x="50.13375" xlink:href="#md527218de4" y="89.0784200991"/>
      </g>
     </g>
     <g id="line2d_84">
      <g>
       <use style="stroke:#000000;stroke-width:0.5;" x="496.53375" xlink:href="#m9764b6f2d9" y="89.0784200991"/>
      </g>
     </g>
    </g>
    <g id="ytick_38">
     <g id="line2d_85">
      <g>
       <use style="stroke:#000000;stroke-width:0.5;" x="50.13375" xlink:href="#md527218de4" y="85.5427577476"/>
      </g>
     </g>
     <g id="line2d_86">
      <g>
       <use style="stroke:#000000;stroke-width:0.5;" x="496.53375" xlink:href="#m9764b6f2d9" y="85.5427577476"/>
      </g>
     </g>
    </g>
    <g id="ytick_39">
     <g id="line2d_87">
      <g>
       <use style="stroke:#000000;stroke-width:0.5;" x="50.13375" xlink:href="#md527218de4" y="61.5728066997"/>
      </g>
     </g>
     <g id="line2d_88">
      <g>
       <use style="stroke:#000000;stroke-width:0.5;" x="496.53375" xlink:href="#m9764b6f2d9" y="61.5728066997"/>
      </g>
     </g>
    </g>
    <g id="ytick_40">
     <g id="line2d_89">
      <g>
       <use style="stroke:#000000;stroke-width:0.5;" x="50.13375" xlink:href="#md527218de4" y="49.4013788738"/>
      </g>
     </g>
     <g id="line2d_90">
      <g>
       <use style="stroke:#000000;stroke-width:0.5;" x="496.53375" xlink:href="#m9764b6f2d9" y="49.4013788738"/>
      </g>
     </g>
    </g>
    <g id="ytick_41">
     <g id="line2d_91">
      <g>
       <use style="stroke:#000000;stroke-width:0.5;" x="50.13375" xlink:href="#md527218de4" y="40.7656133994"/>
      </g>
     </g>
     <g id="line2d_92">
      <g>
       <use style="stroke:#000000;stroke-width:0.5;" x="496.53375" xlink:href="#m9764b6f2d9" y="40.7656133994"/>
      </g>
     </g>
    </g>
    <g id="ytick_42">
     <g id="line2d_93">
      <g>
       <use style="stroke:#000000;stroke-width:0.5;" x="50.13375" xlink:href="#md527218de4" y="34.0671933003"/>
      </g>
     </g>
     <g id="line2d_94">
      <g>
       <use style="stroke:#000000;stroke-width:0.5;" x="496.53375" xlink:href="#m9764b6f2d9" y="34.0671933003"/>
      </g>
     </g>
    </g>
    <g id="ytick_43">
     <g id="line2d_95">
      <g>
       <use style="stroke:#000000;stroke-width:0.5;" x="50.13375" xlink:href="#md527218de4" y="28.5941855735"/>
      </g>
     </g>
     <g id="line2d_96">
      <g>
       <use style="stroke:#000000;stroke-width:0.5;" x="496.53375" xlink:href="#m9764b6f2d9" y="28.5941855735"/>
      </g>
     </g>
    </g>
    <g id="ytick_44">
     <g id="line2d_97">
      <g>
       <use style="stroke:#000000;stroke-width:0.5;" x="50.13375" xlink:href="#md527218de4" y="23.9668234742"/>
      </g>
     </g>
     <g id="line2d_98">
      <g>
       <use style="stroke:#000000;stroke-width:0.5;" x="496.53375" xlink:href="#m9764b6f2d9" y="23.9668234742"/>
      </g>
     </g>
    </g>
    <g id="ytick_45">
     <g id="line2d_99">
      <g>
       <use style="stroke:#000000;stroke-width:0.5;" x="50.13375" xlink:href="#md527218de4" y="19.9584200991"/>
      </g>
     </g>
     <g id="line2d_100">
      <g>
       <use style="stroke:#000000;stroke-width:0.5;" x="496.53375" xlink:href="#m9764b6f2d9" y="19.9584200991"/>
      </g>
     </g>
    </g>
    <g id="ytick_46">
     <g id="line2d_101">
      <g>
       <use style="stroke:#000000;stroke-width:0.5;" x="50.13375" xlink:href="#md527218de4" y="16.4227577476"/>
      </g>
     </g>
     <g id="line2d_102">
      <g>
       <use style="stroke:#000000;stroke-width:0.5;" x="496.53375" xlink:href="#m9764b6f2d9" y="16.4227577476"/>
      </g>
     </g>
    </g>
    <g id="text_13">
     <!-- Load cycles -->
     <defs>
      <path d="M 9.8125 72.90625 
L 19.671875 72.90625 
L 19.671875 8.296875 
L 55.171875 8.296875 
L 55.171875 0 
L 9.8125 0 
z
" id="BitstreamVeraSans-Roman-4c"/>
      <path d="M 9.421875 75.984375 
L 18.40625 75.984375 
L 18.40625 0 
L 9.421875 0 
z
" id="BitstreamVeraSans-Roman-6c"/>
      <path d="M 32.171875 -5.078125 
Q 28.375 -14.84375 24.75 -17.8125 
Q 21.140625 -20.796875 15.09375 -20.796875 
L 7.90625 -20.796875 
L 7.90625 -13.28125 
L 13.1875 -13.28125 
Q 16.890625 -13.28125 18.9375 -11.515625 
Q 21 -9.765625 23.484375 -3.21875 
L 25.09375 0.875 
L 2.984375 54.6875 
L 12.5 54.6875 
L 29.59375 11.921875 
L 46.6875 54.6875 
L 56.203125 54.6875 
z
" id="BitstreamVeraSans-Roman-79"/>
      <path d="M 45.40625 46.390625 
L 45.40625 75.984375 
L 54.390625 75.984375 
L 54.390625 0 
L 45.40625 0 
L 45.40625 8.203125 
Q 42.578125 3.328125 38.25 0.953125 
Q 33.9375 -1.421875 27.875 -1.421875 
Q 17.96875 -1.421875 11.734375 6.484375 
Q 5.515625 14.40625 5.515625 27.296875 
Q 5.515625 40.1875 11.734375 48.09375 
Q 17.96875 56 27.875 56 
Q 33.9375 56 38.25 53.625 
Q 42.578125 51.265625 45.40625 46.390625 
M 14.796875 27.296875 
Q 14.796875 17.390625 18.875 11.75 
Q 22.953125 6.109375 30.078125 6.109375 
Q 37.203125 6.109375 41.296875 11.75 
Q 45.40625 17.390625 45.40625 27.296875 
Q 45.40625 37.203125 41.296875 42.84375 
Q 37.203125 48.484375 30.078125 48.484375 
Q 22.953125 48.484375 18.875 42.84375 
Q 14.796875 37.203125 14.796875 27.296875 
" id="BitstreamVeraSans-Roman-64"/>
      <path d="M 34.28125 27.484375 
Q 23.390625 27.484375 19.1875 25 
Q 14.984375 22.515625 14.984375 16.5 
Q 14.984375 11.71875 18.140625 8.90625 
Q 21.296875 6.109375 26.703125 6.109375 
Q 34.1875 6.109375 38.703125 11.40625 
Q 43.21875 16.703125 43.21875 25.484375 
L 43.21875 27.484375 
z
M 52.203125 31.203125 
L 52.203125 0 
L 43.21875 0 
L 43.21875 8.296875 
Q 40.140625 3.328125 35.546875 0.953125 
Q 30.953125 -1.421875 24.3125 -1.421875 
Q 15.921875 -1.421875 10.953125 3.296875 
Q 6 8.015625 6 15.921875 
Q 6 25.140625 12.171875 29.828125 
Q 18.359375 34.515625 30.609375 34.515625 
L 43.21875 34.515625 
L 43.21875 35.40625 
Q 43.21875 41.609375 39.140625 45 
Q 35.0625 48.390625 27.6875 48.390625 
Q 23 48.390625 18.546875 47.265625 
Q 14.109375 46.140625 10.015625 43.890625 
L 10.015625 52.203125 
Q 14.9375 54.109375 19.578125 55.046875 
Q 24.21875 56 28.609375 56 
Q 40.484375 56 46.34375 49.84375 
Q 52.203125 43.703125 52.203125 31.203125 
" id="BitstreamVeraSans-Roman-61"/>
      <path d="M 48.78125 52.59375 
L 48.78125 44.1875 
Q 44.96875 46.296875 41.140625 47.34375 
Q 37.3125 48.390625 33.40625 48.390625 
Q 24.65625 48.390625 19.8125 42.84375 
Q 14.984375 37.3125 14.984375 27.296875 
Q 14.984375 17.28125 19.8125 11.734375 
Q 24.65625 6.203125 33.40625 6.203125 
Q 37.3125 6.203125 41.140625 7.25 
Q 44.96875 8.296875 48.78125 10.40625 
L 48.78125 2.09375 
Q 45.015625 0.34375 40.984375 -0.53125 
Q 36.96875 -1.421875 32.421875 -1.421875 
Q 20.0625 -1.421875 12.78125 6.34375 
Q 5.515625 14.109375 5.515625 27.296875 
Q 5.515625 40.671875 12.859375 48.328125 
Q 20.21875 56 33.015625 56 
Q 37.15625 56 41.109375 55.140625 
Q 45.0625 54.296875 48.78125 52.59375 
" id="BitstreamVeraSans-Roman-63"/>
     </defs>
     <g transform="translate(16.318125 221.1)rotate(-90.0)scale(0.12 -0.12)">
      <use xlink:href="#BitstreamVeraSans-Roman-4c"/>
      <use x="55.697265625" xlink:href="#BitstreamVeraSans-Roman-6f"/>
      <use x="116.87890625" xlink:href="#BitstreamVeraSans-Roman-61"/>
      <use x="178.158203125" xlink:href="#BitstreamVeraSans-Roman-64"/>
      <use x="241.634765625" xlink:href="#BitstreamVeraSans-Roman-20"/>
      <use x="273.421875" xlink:href="#BitstreamVeraSans-Roman-63"/>
      <use x="328.40234375" xlink:href="#BitstreamVeraSans-Roman-79"/>
      <use x="387.58203125" xlink:href="#BitstreamVeraSans-Roman-63"/>
      <use x="442.5625" xlink:href="#BitstreamVeraSans-Roman-6c"/>
      <use x="470.345703125" xlink:href="#BitstreamVeraSans-Roman-65"/>
      <use x="531.869140625" xlink:href="#BitstreamVeraSans-Roman-73"/>
     </g>
    </g>
   </g>
  </g>
 </g>
 <defs>
  <clipPath id="pf2f859a3b8">
   <rect height="345.6" width="446.4" x="50.13375" y="13.26"/>
  </clipPath>
 </defs>
</svg>
